<?xml version="1.0" encoding="UTF-8" standalone="no"?>
<!DOCTYPE svg PUBLIC "-//W3C//DTD SVG 1.1//EN" "http://www.w3.org/Graphics/SVG/1.1/DTD/svg11.dtd">
<svg width="100%" height="100%" viewBox="0 0 1860 612" version="1.1" xmlns="http://www.w3.org/2000/svg" xmlns:xlink="http://www.w3.org/1999/xlink" xml:space="preserve" xmlns:serif="http://www.serif.com/" style="fill-rule:evenodd;clip-rule:evenodd;stroke-linejoin:round;stroke-miterlimit:2;">
    <g id="c">
    </g>
    <rect id="Artboard1" x="0" y="0" width="1860" height="611.7" style="fill:none;"/>
    <g id="d">
        <path id="e" d="M398.6,89.799C398.6,89.799 371.3,111.399 343.4,132.799C314.7,131.899 258.5,138.299 228.1,149.399C200,131.599 175.4,111.999 175.4,111.999C175.4,111.999 154.3,148.199 141.1,169.499C121.5,179.899 101.7,191.699 84.2,207.199C63.8,199.099 40.1,189.199 39.3,188.899C66.4,243.499 84.6,272.699 134.1,305.599C212.9,181.099 579.3,192.599 659.7,304.899C711.7,277.799 731.9,244.899 752.4,191.099C750.2,191.799 722.3,201.199 704.3,207.999C693.5,196.299 668.1,178.199 653.7,169.499C639.9,144.499 620,110.599 620,110.599C620,110.599 596.4,128.199 569.1,147.299C532.1,140.499 487.5,132.199 449.9,134.199C424.3,113.199 398.6,89.799 398.6,89.799Z" style="fill:rgb(243,212,0);fill-rule:nonzero;"/>
        <path d="M609.7,374.299C586.7,386.899 533.7,394.499 533.7,394.499L394.2,322.399L254.7,394.499C254.7,394.499 201.7,386.899 178.7,374.299C146.4,356.499 91,323.499 58.8,275.799C58.8,275.799 87.6,341.699 117.4,408.699C179.2,485.599 287.1,522.199 394.2,521.899C501.4,522.199 609.2,485.599 671,408.699C700.8,341.599 729.6,275.799 729.6,275.799C697.3,323.499 642,356.499 609.7,374.299Z" style="fill:rgb(255,233,83);fill-rule:nonzero;"/>
    </g>
    <path id="f" d="M1747.7,353.8C1759.4,353.8 1769.1,357.9 1777.3,366.1C1785.5,374.3 1789.6,384.3 1789.6,395.7L1789.6,558.1L1755,541.1L1755,395.7C1755,393.6 1754.4,392.2 1752.9,390.7C1751.4,389.2 1749.7,388.6 1747.6,388.6L1673.7,388.6C1671.6,388.6 1670.2,389.2 1668.7,390.7C1667.2,392.2 1666.6,393.6 1666.6,395.7L1666.6,541.1L1631.7,541.1L1631.7,395.7C1631.7,393.6 1631.1,392.2 1629.6,390.7C1628.1,389.2 1626.7,388.6 1624.6,388.6L1550.5,388.6C1548.4,388.6 1547,389.2 1545.5,390.7C1544,392.2 1543.4,393.6 1543.4,395.7L1543.4,541.1L1508.5,541.1L1508.5,353.8L1747.7,353.8ZM1240.7,388.7C1238.6,388.7 1237.2,389.3 1235.7,390.8C1234.2,392.3 1233.6,393.7 1233.6,395.8L1233.6,541.2L1198.7,541.2L1198.7,353.8L1347.3,353.8C1359,353.8 1368.7,357.9 1376.9,366.1C1385.1,374.3 1389.2,384.3 1389.2,395.7L1389.2,558.1L1354.6,541.1L1354.6,395.7C1354.6,393.6 1354,392.2 1352.5,390.7C1351,389.2 1349.3,388.6 1347.2,388.6L1240.7,388.6L1240.7,388.7ZM1465,353.8L1465,541.1L1430.1,541.1L1430.1,353.8L1465,353.8Z" style="fill:rgb(243,212,0);fill-rule:nonzero;"/>
    <path d="M961.563,80.442L975.625,80.442C990.625,80.442 1001.45,82.082 1008.11,85.363L1009.52,84.66C1018.98,87.473 1029.06,94.27 1039.75,105.051C1044.91,113.582 1047.48,121.598 1047.48,129.098L1047.48,131.91C1047.48,158.629 1022.12,191.77 971.406,231.332C970.563,231.332 963.531,236.254 950.313,246.098C949.469,246.098 943.563,249.848 932.594,257.348C931.844,257.348 929.266,258.988 924.859,262.27L923.453,261.567C922.703,263.723 919.656,265.832 914.313,267.895C906.156,273.426 897.672,277.926 888.859,281.395C909.766,309.801 937.281,344.582 971.406,385.738C971.406,386.582 974.219,390.332 979.844,396.988C982.656,402.145 984.531,404.723 985.469,404.723L1003.19,429.332C1018.19,450.895 1025.69,462.192 1025.69,463.223C1027.09,463.879 1027.8,465.52 1027.8,468.145C1026.86,468.145 1024.98,466.504 1022.17,463.223L1021.47,464.629L1022.88,467.442L1024.28,466.738L1024.98,466.738C1024.98,470.207 1029.91,477.707 1039.75,489.238C1050.44,504.238 1056.11,513.426 1056.77,516.801L1056.77,518.91L1055.36,518.91L1040.45,499.223C1040.45,501.004 1038.81,503.348 1035.53,506.254C1012.09,480.379 991.422,456.145 973.516,433.551C963.391,423.145 950.453,406.973 934.703,385.035C896.172,334.692 872.219,303.895 862.844,292.645L862.141,292.645C859.797,296.395 858.625,299.442 858.625,301.785C858.25,301.785 857.547,302.488 856.516,303.895L857.219,305.301C853.469,314.395 850.422,320.254 848.078,322.879L848.781,324.285C848.781,324.66 845.5,331.973 838.938,346.223L838.234,346.223C838.234,345.754 838,345.52 837.531,345.52L837.531,346.926C838.469,346.926 838.938,347.16 838.938,347.629C834.063,360.473 830.969,367.27 829.656,368.02L829.656,366.613C830.594,363.801 831.297,362.395 831.766,362.395C831.297,361.457 831.063,360.754 831.063,360.285L830.359,360.285C828.203,368.16 823.75,379.457 817,394.176L812.781,394.176C812.781,393.707 813.016,393.473 813.484,393.473C813.484,391.598 812.078,390.426 809.266,389.957C809.266,390.895 808.797,391.363 807.859,391.363C807.859,390.895 807.625,390.66 807.156,390.66C812.031,381.004 817.422,368.535 823.328,353.254C827.078,346.223 828.953,341.535 828.953,339.192C827.078,339.192 826.141,338.488 826.141,337.082L825.438,337.082C822.156,344.395 819.578,351.426 817.703,358.176L816.297,358.176C810.672,357.145 807.859,355.973 807.859,354.66C812.547,343.41 814.891,337.317 814.891,336.379C813.953,335.16 813.484,334.457 813.484,334.27C832.797,288.238 855.344,238.176 881.125,184.082C889.188,167.301 894.391,157.645 896.734,155.113L897.438,155.113L898.844,160.035L900.25,159.332C900.438,159.332 901.141,159.801 902.359,160.738C906.672,151.645 909.719,146.957 911.5,146.676C912.906,149.488 913.609,151.129 913.609,151.598C912.484,154.692 910.375,158.957 907.281,164.395L908.688,165.098C915.625,150.098 919.844,142.551 921.344,142.457C924.156,142.738 925.563,143.442 925.563,144.567L925.563,145.27C923.219,149.113 922.047,152.629 922.047,155.817L922.75,155.817L883.234,243.285C883.703,243.285 883.938,243.52 883.938,243.988C883,244.457 880.891,248.207 877.609,255.238L878.313,256.645L876.203,260.16L876.203,261.567L876.906,261.567C890.875,254.254 925.188,230.301 979.844,189.707C1000.56,166.176 1010.92,146.676 1010.92,131.207L1010.92,129.098C1010.92,120.754 1001.73,111.332 983.359,100.832L974.922,99.426C957.203,101.02 932.781,109.035 901.656,123.473C889.75,129.754 877.984,137.254 866.359,145.973C842.828,167.16 831.063,179.863 831.063,184.082L830.359,184.082L826.141,180.567L825.438,180.567C824.406,180.567 823.703,182.207 823.328,185.488L821.219,185.488L821.219,184.785C821.219,179.442 826.422,170.723 836.828,158.629C841.703,153.004 844.516,150.192 845.266,150.192L845.266,149.488L843.859,149.488C830.547,159.52 822.531,165.192 819.813,166.504L817,163.692L818.406,161.442L817.703,157.223C819.953,151.129 831.25,140.582 851.594,125.582C887.031,103.176 911.219,90.473 924.156,87.473C927.438,85.41 935.688,83.301 948.906,81.145L948.906,81.848C951.25,80.91 955.469,80.442 961.563,80.442ZM864.953,124.176L864.953,124.879L865.656,124.879C902.781,103.223 926.031,92.395 935.406,92.395C935.406,91.645 938.734,90.473 945.391,88.879L945.391,88.176L944.688,88.176C927.156,90.707 900.578,102.707 864.953,124.176ZM981.25,88.176L981.25,88.879C983.875,88.879 990.484,90.285 1001.08,93.098L1001.78,93.098L1001.78,92.395C995.781,89.582 990.578,88.176 986.172,88.176L981.25,88.176ZM1025.69,98.02C1033.19,106.176 1036.94,116.067 1036.94,127.692L1036.94,131.91C1036.94,141.379 1032.02,155.02 1022.17,172.832C1011.2,185.02 1001.55,195.332 993.203,203.77L993.203,205.176L993.906,205.176C993.906,204.426 997.703,200.91 1005.3,194.629C1010.64,187.973 1014.62,183.285 1017.25,180.567C1034.12,161.067 1042.56,142.504 1042.56,124.879C1042.56,113.817 1037.17,104.863 1026.39,98.02L1025.69,98.02ZM992.5,100.832L992.5,101.535C1008.53,112.223 1016.55,123.52 1016.55,135.426C1016.08,136.27 1015.84,137.207 1015.84,138.238L1015.84,139.645L1016.55,139.645C1017.48,134.301 1017.95,130.551 1017.95,128.395L1017.95,127.692C1017.95,117.098 1013.03,109.317 1003.19,104.348C1000.47,102.942 997.141,101.77 993.203,100.832L992.5,100.832ZM1025.69,104.348L1025.69,105.754C1027.09,107.348 1027.8,108.567 1027.8,109.41L1028.5,109.41L1028.5,108.707C1027.38,105.801 1026.44,104.348 1025.69,104.348ZM1017.25,107.16C1021.47,111.567 1023.58,114.426 1023.58,115.738L1024.28,115.738L1024.28,113.629C1021.56,109.785 1019.45,107.629 1017.95,107.16L1017.25,107.16ZM911.5,109.41L911.5,110.113L912.203,110.113C913.141,109.645 913.844,109.41 914.313,109.41L914.313,108.707L913.609,108.707C912.672,109.176 911.969,109.41 911.5,109.41ZM907.281,112.223L907.984,112.223C909.109,111.285 910.047,110.817 910.797,110.817L910.797,110.113L910.094,110.113C908.219,110.77 907.281,111.473 907.281,112.223ZM902.359,113.629L902.359,114.332L903.063,114.332C904.563,113.395 905.734,112.926 906.578,112.926L906.578,112.223L905.875,112.223C904.375,113.16 903.203,113.629 902.359,113.629ZM1022.17,122.067L1022.17,122.77C1022.55,126.988 1023.25,129.098 1024.28,129.098L1024.28,126.285C1024.28,123.848 1023.58,122.442 1022.17,122.067ZM845.969,155.817C845.969,155.348 845.734,155.113 845.266,155.113L843.156,158.629L843.156,159.332L843.859,159.332C843.859,158.582 849.484,153.192 860.734,143.16C863.266,142.035 866.547,139.457 870.578,135.426L869.875,135.426C865.094,137.957 858.063,143.582 848.781,152.301C847.563,154.645 846.625,155.817 845.969,155.817ZM833.172,148.082L831.766,150.192L833.172,150.192C833.172,149.723 833.406,149.02 833.875,148.082L833.172,148.082ZM827.547,154.41L828.953,154.41C828.953,153.004 829.656,152.301 831.063,152.301L831.063,150.895C830.5,150.895 829.328,152.067 827.547,154.41ZM988.281,208.692L988.281,209.395L992.5,205.879L991.797,205.879C989.641,206.817 988.469,207.754 988.281,208.692ZM911.5,263.676L911.5,264.379L912.203,264.379C913.141,264.379 913.609,263.91 913.609,262.973L913.609,261.567C912.953,261.567 912.25,262.27 911.5,263.676ZM898.141,271.41C898.141,272.442 897.438,272.957 896.031,272.957L896.031,273.66L897.438,273.66C897.438,272.629 898.141,272.113 899.547,272.113L899.547,271.41L898.141,271.41ZM871.281,294.051L871.281,294.754L875.5,298.973L875.5,297.567C874.938,297.567 873.531,296.395 871.281,294.051ZM876.906,300.379L876.906,301.785C877.188,301.785 877.891,302.254 879.016,303.192L879.016,302.488C878.078,302.488 877.609,301.785 877.609,300.379L876.906,300.379ZM883.234,308.817C884.172,310.973 885.109,312.145 886.047,312.332C885.203,310.176 884.266,309.004 883.234,308.817ZM888.859,316.551L888.859,317.254C889.984,317.254 891.203,318.895 892.516,322.176L893.922,322.176C891.297,318.426 889.609,316.551 888.859,316.551ZM903.063,334.973L903.063,336.379L905.875,338.488C904.469,336.613 903.766,335.442 903.766,334.973L903.063,334.973ZM907.281,340.598L907.281,341.301L910.094,344.113C909.156,341.957 908.219,340.785 907.281,340.598ZM914.313,345.52L914.313,346.223C945.156,385.504 963.016,408.988 967.891,416.676C974.453,423.051 977.734,426.801 977.734,427.926L979.141,427.926C960.203,400.457 938.594,372.988 914.313,345.52ZM828.25,370.129L829.656,370.129L829.656,370.832L828.953,372.238C829.422,372.238 829.656,372.473 829.656,372.942C828.531,372.942 827.359,375.285 826.141,379.973L825.438,379.973L825.438,378.567C825.438,378.004 826.375,375.192 828.25,370.129ZM967.188,404.02L967.188,404.723C995.125,443.535 1011.34,465.379 1015.84,470.254C1018.28,471.942 1019.92,473.817 1020.77,475.879L1020.77,477.988C1020.95,477.988 1021.66,478.457 1022.88,479.395L1022.88,478.692C1021.94,478.692 1021.47,478.223 1021.47,477.285L1022.17,477.285C1025.45,479.629 1027.09,481.504 1027.09,482.91L1027.8,482.91L1027.8,482.207C1018.98,468.707 1002.77,447.332 979.141,418.082C971.828,408.707 967.844,404.02 967.188,404.02ZM1014.44,454.082L1014.44,455.488L1020.77,463.223L1021.47,463.223C1017.25,457.692 1015.14,454.645 1015.14,454.082L1014.44,454.082Z" style="fill:rgb(255,0,0);fill-rule:nonzero;"/>
    <path d="M1266.44,117.567L1267.14,117.567C1268.17,117.567 1269.2,119.395 1270.23,123.051L1268.41,124.317L1267.7,124.317C1265.83,124.317 1259.59,124.785 1249,125.723C1250.31,128.16 1252.19,129.988 1254.62,131.207C1255.38,130.738 1257.25,130.27 1260.25,129.801C1264,130.926 1265.88,132.285 1265.88,133.879C1265.78,135.192 1264.52,136.317 1262.08,137.254L1262.08,137.957L1260.81,137.957L1260.81,136.551L1258.98,136.551L1258.98,137.957L1257.72,137.254L1257.16,137.254L1257.16,138.66L1254.62,138.66L1251.39,139.363L1251.39,137.957L1250.27,137.957C1250.27,138.895 1249.19,139.363 1247.03,139.363L1247.03,138.66L1245.77,138.66L1246.47,139.926C1245.91,140.395 1243,140.863 1237.75,141.332L1237.75,139.926L1235.78,139.926C1235.78,141.332 1232.88,142.035 1227.06,142.035L1227.06,141.332L1225.8,141.332C1225.8,142.738 1225.38,143.442 1224.53,143.442L1223.27,143.442L1223.27,142.035L1220.73,142.035L1221.44,143.442L1220.17,144.004C1219.33,143.629 1218.72,143.442 1218.34,143.442C1216.94,144.285 1215.67,144.707 1214.55,144.707L1214.55,143.442L1212.02,143.442L1212.72,144.707L1212.72,145.41C1211.59,144.473 1210.94,144.004 1210.75,144.004C1209.91,144.004 1209.48,144.707 1209.48,146.113L1207.66,146.113L1207.66,144.707L1206.39,144.707L1206.39,146.113L1205.83,146.113L1205.83,144.707L1203.3,144.707L1203.86,146.113L1200.77,145.41L1200.2,145.41L1200.77,146.817L1199.5,147.52L1197.67,147.52L1197.67,146.113L1196.41,146.113C1195.94,146.113 1195.7,146.348 1195.7,146.817L1194.44,146.113C1185.06,149.77 1172.17,152.254 1155.77,153.567C1131.95,157.598 1120.05,160.082 1120.05,161.02C1119.58,161.02 1119.34,160.785 1119.34,160.317C1114.47,161.254 1111.56,162.192 1110.62,163.129C1109.88,162.66 1109.03,162.426 1108.09,162.426C1108.09,163.27 1107.67,163.692 1106.83,163.692L1105.56,163.692C1105.19,163.692 1105,163.504 1105,163.129C1102.84,163.973 1101.39,164.395 1100.64,164.395L1100.64,163.692C1094.36,165.285 1091.22,168.004 1091.22,171.848C1075.56,202.598 1067.22,219.613 1066.19,222.895L1066.89,222.895C1075.89,221.02 1081.09,220.082 1082.5,220.082C1082.88,220.082 1083.48,220.317 1084.33,220.785C1088.73,219.848 1095.2,219.192 1103.73,218.817L1103.73,220.082L1111.33,219.379C1112.08,219.567 1112.45,220.035 1112.45,220.785C1109.17,222.379 1107.53,223.504 1107.53,224.16L1108.09,224.16C1108.84,223.692 1109.69,223.457 1110.62,223.457L1110.62,224.16L1111.89,223.457L1112.45,223.457C1112.92,223.457 1113.16,223.692 1113.16,224.16C1113.81,223.692 1116.53,223.27 1121.31,222.895L1121.88,224.16L1121.88,224.863C1121.88,226.551 1117.7,228.145 1109.36,229.645L1109.36,230.348L1110.62,230.348C1115.5,229.879 1119.06,229.645 1121.31,229.645L1121.88,230.91C1119.44,234.942 1115.92,237.238 1111.33,237.801C1102.33,240.988 1086.86,244.129 1064.92,247.223L1064.92,248.629L1066.19,247.926L1071.25,247.926C1071.25,250.176 1066.23,252.004 1056.2,253.41C1051.61,254.442 1049.31,256.926 1049.31,260.863C1045.09,269.02 1037.59,286.879 1026.81,314.442L1027.38,314.442C1028.59,314.067 1037.36,312.707 1053.67,310.363L1053.67,311.067C1055.45,310.223 1058.78,309.332 1063.66,308.395L1063.66,309.098L1064.92,308.395L1066.19,309.098C1066.28,308.16 1066.7,307.692 1067.45,307.692L1068.72,308.395C1068.72,307.457 1072.47,306.567 1079.97,305.723L1079.97,306.988L1079.41,308.395L1080.53,308.395C1080.91,308.395 1092.62,306.145 1115.69,301.645C1117.66,304.27 1118.69,306.754 1118.78,309.098C1118.31,309.098 1112.27,310.457 1100.64,313.176L1100.64,313.879L1103.73,313.879C1104.2,313.879 1104.44,313.645 1104.44,313.176C1105.19,313.645 1105.8,313.879 1106.27,313.879C1106.55,313.879 1109.27,313.645 1114.42,313.176L1116.95,315.848C1116.95,317.629 1110.48,320.113 1097.55,323.301L1098.11,324.707C1097.27,324.801 1096.84,325.223 1096.84,325.973L1095.58,325.41L1093.75,325.41C1093.75,326.442 1090,327.567 1082.5,328.785L1082.5,329.488L1085.03,329.488C1085.03,330.332 1074.58,332.582 1053.67,336.238C1023.2,341.676 1007.97,345.051 1007.97,346.363C1004.88,350.395 1003.23,353.348 1003.05,355.223C997.984,361.598 995.453,365.676 995.453,367.457C992.547,367.457 991.094,366.988 991.094,366.051L996.156,351.848C993.063,355.504 991.375,357.332 991.094,357.332L990.531,357.332L990.531,356.629C990.531,356.16 990.719,355.926 991.094,355.926L990.531,354.52C992.125,351.051 993.156,349.035 993.625,348.473L993.625,347.77C987.344,347.77 984.203,345.285 984.203,340.317C992.547,338.067 996.719,336.473 996.719,335.535C997.094,334.785 997.281,333.895 997.281,332.863L994.891,328.785L994.891,328.082L995.453,326.676C994.891,326.676 994.047,325.551 992.922,323.301C992.922,322.363 996.484,321.238 1003.61,319.926C1009.05,307.27 1011.77,300.473 1011.77,299.535C1008.86,303.192 1007.17,305.02 1006.7,305.02L1006.14,305.02L1006.14,302.207C1009.33,296.207 1015.56,281.957 1024.84,259.457L1024.28,259.457C1011.72,261.707 1004.64,262.832 1003.05,262.832L1000.52,261.567C1000.05,261.567 999.391,261.801 998.547,262.27C995.734,262.27 992.406,260.676 988.563,257.488L988.563,255.379L990.531,255.379L990.531,254.676C988,251.863 986.734,248.957 986.734,245.957C992.547,243.707 996.719,242.582 999.25,242.582L999.25,241.176C998.313,241.176 997.469,241.41 996.719,241.879C993.156,240.473 990.859,239.77 989.828,239.77L989.828,238.504C1020.3,233.067 1036.56,229.879 1038.62,228.942C1051.09,203.067 1060.7,184.035 1067.45,171.848L1067.45,171.285C1044.67,175.785 1030.28,178.504 1024.28,179.442L1018.66,178.738C1016.31,179.207 1014.62,179.442 1013.59,179.442C1012.28,177.285 1011.44,174.754 1011.06,171.848C1015.56,171.192 1018.09,170.535 1018.66,169.879L1019.22,169.879C1019.69,169.879 1019.92,170.113 1019.92,170.582C1028.64,168.801 1033,167.442 1033,166.504C1032.34,164.629 1031.73,163.692 1031.17,163.692C1027.61,164.16 1024.89,164.395 1023.02,164.395C1021.8,162.801 1021.19,161.207 1021.19,159.613L1021.19,159.051L1021.75,157.645C1022.12,157.645 1022.31,157.879 1022.31,158.348C1042.66,153.848 1055.59,151.129 1061.12,150.192L1063.66,151.598L1064.36,151.598L1064.36,150.895L1063.09,150.895L1063.09,150.192C1063.66,150.192 1065.95,149.723 1069.98,148.785C1070.08,149.723 1070.5,150.192 1071.25,150.192C1071.25,148.598 1073.73,147.473 1078.7,146.817L1081.8,148.082C1081.98,147.238 1082.41,146.817 1083.06,146.817L1083.77,146.817L1083.77,148.082L1085.03,148.082L1084.33,146.817L1086.86,146.817C1086.86,145.785 1088.73,145.082 1092.48,144.707C1092.58,145.645 1093,146.113 1093.75,146.113C1093.75,144.332 1097.92,143.207 1106.27,142.738C1106.27,142.27 1106.88,142.035 1108.09,142.035L1108.09,142.738L1109.36,142.035C1110.2,142.504 1110.86,142.738 1111.33,142.738C1111.33,140.863 1116.3,139.926 1126.23,139.926C1126.23,139.176 1131.48,138.051 1141.98,136.551L1141.98,138.66L1143.11,138.66C1143.11,136.41 1146.48,135.285 1153.23,135.285C1157.17,133.879 1160.27,133.176 1162.52,133.176L1164.48,133.176C1165.42,133.176 1166.27,133.41 1167.02,133.879C1167.02,132.192 1175.97,130.363 1193.88,128.395L1193.88,129.801L1195.7,129.801L1195.14,128.395L1195.14,127.832L1199.5,127.129L1199.5,127.832C1201.19,126.895 1202.45,126.426 1203.3,126.426L1203.3,127.129L1221.44,123.754L1222.7,124.317C1227.77,123.098 1237.33,121.551 1251.39,119.676L1251.39,118.973L1252.66,119.676L1255.19,119.676C1256.12,119.676 1256.97,119.442 1257.72,118.973L1258.98,119.676L1266.44,117.567ZM1238.88,139.363L1238.88,139.926L1241.41,139.926L1241.41,139.363L1238.88,139.363ZM1073.64,148.785L1073.64,149.488L1076.88,149.488L1076.88,148.785L1073.64,148.785ZM1047.48,220.082L1047.48,220.785L1048.05,220.785C1048.05,219.754 1048.66,218.395 1049.88,216.707L1049.88,216.004C1049.22,216.004 1048.42,217.363 1047.48,220.082ZM1078.14,328.785L1078.14,329.488L1080.53,329.488L1080.53,328.785L1078.14,328.785ZM1071.81,330.051L1071.81,330.754C1073.5,330.285 1074.95,330.051 1076.17,330.051L1076.17,329.488L1073.64,329.488C1072.89,329.863 1072.28,330.051 1071.81,330.051ZM1054.23,332.863L1054.23,333.567L1056.77,333.567L1056.77,332.863L1054.23,332.863Z" style="fill:rgb(255,0,0);fill-rule:nonzero;"/>
    <path d="M1310.17,84.098C1342.52,90.285 1358.69,99.285 1358.69,111.098L1358.69,115.317C1358.69,128.067 1329.77,158.16 1271.92,205.598C1270.7,205.598 1260.02,213.379 1239.86,228.942L1239.86,229.785L1240.7,229.785C1270.33,218.817 1292.59,213.332 1307.5,213.332C1319.41,213.332 1326.62,217.692 1329.16,226.41C1329.16,227.723 1330.05,230.02 1331.83,233.301C1331.83,241.457 1319.69,258.238 1295.41,283.645C1260.91,311.957 1242.67,326.113 1240.7,326.113L1205.12,352.129C1189,364.785 1164.16,385.598 1130.59,414.567C1110.91,434.442 1099.33,444.567 1095.86,444.942C1093.7,448.41 1091.12,450.145 1088.12,450.145L1088.12,449.301L1108.94,426.66L1081.23,448.457L1079.41,448.457C1079.41,447.801 1082.03,445.176 1087.28,440.582C1073.5,450.426 1063.66,456.52 1057.75,458.863L1049.03,465.754C1047.25,465.754 1044.11,467.77 1039.61,471.801L1036.94,471.801L1036.94,470.957L1059.44,450.145L1058.59,450.145C1057.28,452.301 1054.98,454.317 1051.7,456.192C1051.7,455.629 1051.42,455.348 1050.86,455.348C1050.77,456.567 1045.28,461.207 1034.41,469.27L1033.42,469.27L1033.42,468.285C1043.64,457.598 1064.17,439.129 1095.02,412.879L1111.47,398.957C1110.34,398.957 1109.78,398.395 1109.78,397.27C1113.25,386.676 1121.08,366.145 1133.27,335.676L1133.27,334.832L1132.28,334.832C1131.25,340.551 1129.23,343.41 1126.23,343.41L1126.23,342.567C1126.23,341.254 1127.12,339.52 1128.91,337.363C1128.34,337.363 1128.06,337.082 1128.06,336.52C1129,336.52 1130.41,333.613 1132.28,327.801C1131.72,327.801 1131.44,327.52 1131.44,326.957C1133.03,326.77 1136.5,318.379 1141.84,301.785C1143.25,300.66 1144.7,297.192 1146.2,291.379L1145.36,291.379L1142.69,293.207C1142.69,292.551 1142.41,292.223 1141.84,292.223C1141.84,293.067 1141,293.957 1139.31,294.895L1137.48,294.895C1145.64,288.52 1149.72,284.77 1149.72,283.645C1170.81,232.176 1189.28,191.395 1205.12,161.301C1208.59,153.051 1212.39,148.129 1216.52,146.535L1216.52,147.52C1216.52,149.207 1215.06,153.238 1212.16,159.613L1212.16,160.457L1213,160.457C1213.47,157.645 1217.22,152.723 1224.25,145.692L1225.09,145.692C1224.53,148.785 1223.08,151.973 1220.73,155.254L1221.72,155.254C1226.5,148.317 1229.36,144.848 1230.3,144.848L1231.14,144.848L1231.14,149.207C1231.14,149.77 1230.86,150.051 1230.3,150.051C1231.52,151.926 1232.12,153.379 1232.12,154.41C1219.38,177.473 1205.78,205.785 1191.34,239.348L1192.19,239.348C1215.62,223.504 1248.02,197.77 1289.36,162.145C1316.45,136.645 1330,121.035 1330,115.317L1330,114.473C1330,111.285 1322.78,108.098 1308.34,104.91L1301.45,104.91C1297.7,104.91 1293.67,105.52 1289.36,106.738C1285.23,106.176 1282.89,105.895 1282.33,105.895C1270.05,107.02 1259.08,108.426 1249.42,110.113L1245.91,109.27C1238.41,111.613 1229.73,113.629 1219.89,115.317C1219.89,113.629 1229.73,108.754 1249.42,100.692C1251.3,99.473 1253.03,98.863 1254.62,98.863L1254.62,98.02L1253.78,98.02C1249.84,98.582 1243.19,100.598 1233.81,104.067C1231.75,103.504 1230.58,103.223 1230.3,103.223L1218.2,108.426C1227.2,101.77 1239.34,96.567 1254.62,92.817C1254.62,91.504 1263.86,89.77 1282.33,87.613L1284.16,88.457C1289.59,86.77 1298.27,85.317 1310.17,84.098ZM1330.98,96.332C1330.98,97.457 1332.72,98.301 1336.19,98.863C1336.19,98.02 1335.3,97.176 1333.52,96.332L1330.98,96.332ZM1316.22,101.535L1316.22,102.379C1319.88,102.379 1325.36,105.567 1332.67,111.942L1332.67,105.895C1332.67,103.926 1329.2,102.473 1322.27,101.535L1316.22,101.535ZM1344.77,101.535L1344.77,102.379C1346.55,105.285 1347.44,107.582 1347.44,109.27L1349.12,109.27L1349.97,104.91L1349.97,103.223C1349.12,103.223 1348,102.66 1346.59,101.535L1344.77,101.535ZM1199.08,211.645L1199.08,212.488L1199.92,212.488L1202.59,205.598C1201.66,205.598 1200.48,207.613 1199.08,211.645ZM1195.7,217.692C1195.7,218.91 1191.91,227.863 1184.31,244.551C1187.78,239.582 1191.86,231.192 1196.55,219.379L1196.55,217.692L1195.7,217.692ZM1174.89,229.785C1174.89,230.442 1174.56,231.332 1173.91,232.457L1173.91,234.145L1174.89,234.145C1174.89,232.832 1175.17,231.707 1175.73,230.77L1175.73,229.785L1174.89,229.785ZM1173.06,234.988C1173.06,235.645 1172.78,236.535 1172.22,237.66L1173.91,237.66L1173.91,234.988L1173.06,234.988ZM1154.08,280.973L1154.08,281.817L1154.92,281.817L1172.22,240.192L1172.22,238.504C1171.38,238.598 1165.33,252.754 1154.08,280.973ZM1133.27,380.817L1134.11,380.817C1149.58,367.598 1184.83,340.129 1239.86,298.41C1259.92,282.004 1279.28,264.332 1297.94,245.395C1297.94,244.832 1298.22,243.988 1298.78,242.863C1297.09,242.863 1296.25,242.582 1296.25,242.02L1294.56,242.863C1293.91,242.863 1293.58,242.582 1293.58,242.02L1291.89,242.863L1287.53,242.863L1287.53,241.176L1298.78,241.176L1298.78,240.192L1289.36,240.192C1270.23,240.192 1243.61,248.02 1209.48,263.676C1208.83,264.52 1196.69,270.567 1173.06,281.817C1164.44,302.254 1151.17,335.254 1133.27,380.817ZM1268.55,243.707L1271.08,243.707L1271.08,245.395L1268.55,245.395L1268.55,243.707ZM1147.05,298.41C1148.08,298.41 1149.53,295.785 1151.41,290.535L1152.25,290.535L1152.25,288.848C1150.56,288.848 1148.83,292.035 1147.05,298.41ZM1146.2,299.254C1146.2,300.66 1145.64,302.113 1144.52,303.613L1144.52,304.457L1146.2,304.457C1146.77,302.395 1147.05,301.223 1147.05,300.942L1147.05,299.254L1146.2,299.254ZM1143.67,305.301L1141.84,311.348L1141.84,312.192L1142.69,312.192C1143.91,309.098 1144.52,307.363 1144.52,306.988L1144.52,305.301L1143.67,305.301ZM1139.31,317.395L1139.31,318.238L1140.16,318.238C1140.72,316.27 1141,315.145 1141,314.863C1139.88,314.863 1139.31,315.707 1139.31,317.395ZM1221.72,314.863L1222.56,316.551L1214.69,322.598L1214.69,320.91L1213,320.91L1214.69,323.442C1213.28,324.66 1212.44,325.27 1212.16,325.27L1210.33,324.426C1210.33,324.988 1210.05,325.27 1209.48,325.27L1209.48,324.426C1208.36,324.988 1207.52,325.27 1206.95,325.27L1206.95,326.113L1208.64,326.113C1208.64,325.551 1208.92,325.27 1209.48,325.27L1210.33,326.957C1209.86,326.957 1208.12,328.129 1205.12,330.473L1204.28,330.473L1204.28,329.629L1205.12,327.801L1204.28,327.801C1203.72,329.676 1201.98,332.02 1199.08,334.832C1199.08,333.613 1198.52,333.004 1197.39,333.004L1197.39,333.848C1198.52,334.035 1199.08,334.645 1199.08,335.676L1195.7,338.207C1194.58,337.645 1193.69,337.363 1193.03,337.363C1193.03,338.488 1192.47,339.051 1191.34,339.051L1192.19,340.879L1192.19,341.723C1187.78,344.629 1185.16,346.082 1184.31,346.082L1186.14,342.567L1186.14,341.723L1185.3,341.723C1185.3,345.192 1183.23,346.926 1179.11,346.926L1179.11,347.77L1181.78,347.77L1181.78,348.613C1181.78,349.457 1180.33,350.629 1177.42,352.129L1175.73,352.129L1173.91,351.285L1174.89,352.973L1174.89,354.801C1165.98,361.738 1161.34,365.207 1160.97,365.207L1160.12,365.207L1160.97,363.379L1159.28,362.535C1159.28,363.66 1158.67,364.223 1157.45,364.223C1158.02,365.348 1158.3,366.238 1158.3,366.895L1160.97,366.895C1184.88,351.051 1206.25,333.988 1225.09,315.707L1221.72,314.863ZM1138.47,319.223C1138.47,319.785 1138.14,320.629 1137.48,321.754L1137.48,322.598L1138.47,322.598C1138.47,322.035 1138.75,321.192 1139.31,320.067L1139.31,319.223L1138.47,319.223ZM1136.64,323.442L1135.8,326.957C1136.92,326.957 1137.48,326.113 1137.48,324.426L1137.48,323.442L1136.64,323.442ZM1170.53,353.817L1170.53,356.488C1171.66,356.488 1172.22,355.926 1172.22,354.801L1172.22,353.817L1170.53,353.817ZM1166.17,358.176L1167.02,358.176C1168.14,358.176 1168.7,357.613 1168.7,356.488L1168.7,355.645C1167.95,355.645 1167.11,356.488 1166.17,358.176ZM1112.45,404.16L1112.45,405.848C1113.2,405.848 1114.05,405.004 1114.98,403.317C1113.86,403.879 1113.02,404.16 1112.45,404.16ZM1100.22,414.567C1089.16,424.973 1082.83,430.176 1081.23,430.176C1081.33,431.301 1081.89,431.863 1082.92,431.863C1082.92,430.363 1089.3,424.879 1102.05,415.41L1102.05,414.567L1100.22,414.567ZM1060.42,448.457L1060.42,450.145C1074.3,438.707 1081.23,432.613 1081.23,431.863L1080.25,431.863C1067.97,442.926 1061.36,448.457 1060.42,448.457Z" style="fill:rgb(255,0,0);fill-rule:nonzero;"/>
    <path d="M1620.95,117.567L1621.66,117.567C1622.69,117.567 1623.72,119.395 1624.75,123.051L1622.92,124.317L1622.22,124.317C1620.34,124.317 1614.11,124.785 1603.52,125.723C1604.83,128.16 1606.7,129.988 1609.14,131.207C1609.89,130.738 1611.77,130.27 1614.77,129.801C1618.52,130.926 1620.39,132.285 1620.39,133.879C1620.3,135.192 1619.03,136.317 1616.59,137.254L1616.59,137.957L1615.33,137.957L1615.33,136.551L1613.5,136.551L1613.5,137.957L1612.23,137.254L1611.67,137.254L1611.67,138.66L1609.14,138.66L1605.91,139.363L1605.91,137.957L1604.78,137.957C1604.78,138.895 1603.7,139.363 1601.55,139.363L1601.55,138.66L1600.28,138.66L1600.98,139.926C1600.42,140.395 1597.52,140.863 1592.27,141.332L1592.27,139.926L1590.3,139.926C1590.3,141.332 1587.39,142.035 1581.58,142.035L1581.58,141.332L1580.31,141.332C1580.31,142.738 1579.89,143.442 1579.05,143.442L1577.78,143.442L1577.78,142.035L1575.25,142.035L1575.95,143.442L1574.69,144.004C1573.84,143.629 1573.23,143.442 1572.86,143.442C1571.45,144.285 1570.19,144.707 1569.06,144.707L1569.06,143.442L1566.53,143.442L1567.23,144.707L1567.23,145.41C1566.11,144.473 1565.45,144.004 1565.27,144.004C1564.42,144.004 1564,144.707 1564,146.113L1562.17,146.113L1562.17,144.707L1560.91,144.707L1560.91,146.113L1560.34,146.113L1560.34,144.707L1557.81,144.707L1558.38,146.113L1555.28,145.41L1554.72,145.41L1555.28,146.817L1554.02,147.52L1552.19,147.52L1552.19,146.113L1550.92,146.113C1550.45,146.113 1550.22,146.348 1550.22,146.817L1548.95,146.113C1539.58,149.77 1526.69,152.254 1510.28,153.567C1486.47,157.598 1474.56,160.082 1474.56,161.02C1474.09,161.02 1473.86,160.785 1473.86,160.317C1468.98,161.254 1466.08,162.192 1465.14,163.129C1464.39,162.66 1463.55,162.426 1462.61,162.426C1462.61,163.27 1462.19,163.692 1461.34,163.692L1460.08,163.692C1459.7,163.692 1459.52,163.504 1459.52,163.129C1457.36,163.973 1455.91,164.395 1455.16,164.395L1455.16,163.692C1448.88,165.285 1445.73,168.004 1445.73,171.848C1430.08,202.598 1421.73,219.613 1420.7,222.895L1421.41,222.895C1430.41,221.02 1435.61,220.082 1437.02,220.082C1437.39,220.082 1438,220.317 1438.84,220.785C1443.25,219.848 1449.72,219.192 1458.25,218.817L1458.25,220.082L1465.84,219.379C1466.59,219.567 1466.97,220.035 1466.97,220.785C1463.69,222.379 1462.05,223.504 1462.05,224.16L1462.61,224.16C1463.36,223.692 1464.2,223.457 1465.14,223.457L1465.14,224.16L1466.41,223.457L1466.97,223.457C1467.44,223.457 1467.67,223.692 1467.67,224.16C1468.33,223.692 1471.05,223.27 1475.83,222.895L1476.39,224.16L1476.39,224.863C1476.39,226.551 1472.22,228.145 1463.88,229.645L1463.88,230.348L1465.14,230.348C1470.02,229.879 1473.58,229.645 1475.83,229.645L1476.39,230.91C1473.95,234.942 1470.44,237.238 1465.84,237.801C1456.84,240.988 1441.38,244.129 1419.44,247.223L1419.44,248.629L1420.7,247.926L1425.77,247.926C1425.77,250.176 1420.75,252.004 1410.72,253.41C1406.12,254.442 1403.83,256.926 1403.83,260.863C1399.61,269.02 1392.11,286.879 1381.33,314.442L1381.89,314.442C1383.11,314.067 1391.88,312.707 1408.19,310.363L1408.19,311.067C1409.97,310.223 1413.3,309.332 1418.17,308.395L1418.17,309.098L1419.44,308.395L1420.7,309.098C1420.8,308.16 1421.22,307.692 1421.97,307.692L1423.23,308.395C1423.23,307.457 1426.98,306.567 1434.48,305.723L1434.48,306.988L1433.92,308.395L1435.05,308.395C1435.42,308.395 1447.14,306.145 1470.2,301.645C1472.17,304.27 1473.2,306.754 1473.3,309.098C1472.83,309.098 1466.78,310.457 1455.16,313.176L1455.16,313.879L1458.25,313.879C1458.72,313.879 1458.95,313.645 1458.95,313.176C1459.7,313.645 1460.31,313.879 1460.78,313.879C1461.06,313.879 1463.78,313.645 1468.94,313.176L1471.47,315.848C1471.47,317.629 1465,320.113 1452.06,323.301L1452.62,324.707C1451.78,324.801 1451.36,325.223 1451.36,325.973L1450.09,325.41L1448.27,325.41C1448.27,326.442 1444.52,327.567 1437.02,328.785L1437.02,329.488L1439.55,329.488C1439.55,330.332 1429.09,332.582 1408.19,336.238C1377.72,341.676 1362.48,345.051 1362.48,346.363C1359.39,350.395 1357.75,353.348 1357.56,355.223C1352.5,361.598 1349.97,365.676 1349.97,367.457C1347.06,367.457 1345.61,366.988 1345.61,366.051L1350.67,351.848C1347.58,355.504 1345.89,357.332 1345.61,357.332L1345.05,357.332L1345.05,356.629C1345.05,356.16 1345.23,355.926 1345.61,355.926L1345.05,354.52C1346.64,351.051 1347.67,349.035 1348.14,348.473L1348.14,347.77C1341.86,347.77 1338.72,345.285 1338.72,340.317C1347.06,338.067 1351.23,336.473 1351.23,335.535C1351.61,334.785 1351.8,333.895 1351.8,332.863L1349.41,328.785L1349.41,328.082L1349.97,326.676C1349.41,326.676 1348.56,325.551 1347.44,323.301C1347.44,322.363 1351,321.238 1358.12,319.926C1363.56,307.27 1366.28,300.473 1366.28,299.535C1363.38,303.192 1361.69,305.02 1361.22,305.02L1360.66,305.02L1360.66,302.207C1363.84,296.207 1370.08,281.957 1379.36,259.457L1378.8,259.457C1366.23,261.707 1359.16,262.832 1357.56,262.832L1355.03,261.567C1354.56,261.567 1353.91,261.801 1353.06,262.27C1350.25,262.27 1346.92,260.676 1343.08,257.488L1343.08,255.379L1345.05,255.379L1345.05,254.676C1342.52,251.863 1341.25,248.957 1341.25,245.957C1347.06,243.707 1351.23,242.582 1353.77,242.582L1353.77,241.176C1352.83,241.176 1351.98,241.41 1351.23,241.879C1347.67,240.473 1345.38,239.77 1344.34,239.77L1344.34,238.504C1374.81,233.067 1391.08,229.879 1393.14,228.942C1405.61,203.067 1415.22,184.035 1421.97,171.848L1421.97,171.285C1399.19,175.785 1384.8,178.504 1378.8,179.442L1373.17,178.738C1370.83,179.207 1369.14,179.442 1368.11,179.442C1366.8,177.285 1365.95,174.754 1365.58,171.848C1370.08,171.192 1372.61,170.535 1373.17,169.879L1373.73,169.879C1374.2,169.879 1374.44,170.113 1374.44,170.582C1383.16,168.801 1387.52,167.442 1387.52,166.504C1386.86,164.629 1386.25,163.692 1385.69,163.692C1382.12,164.16 1379.41,164.395 1377.53,164.395C1376.31,162.801 1375.7,161.207 1375.7,159.613L1375.7,159.051L1376.27,157.645C1376.64,157.645 1376.83,157.879 1376.83,158.348C1397.17,153.848 1410.11,151.129 1415.64,150.192L1418.17,151.598L1418.88,151.598L1418.88,150.895L1417.61,150.895L1417.61,150.192C1418.17,150.192 1420.47,149.723 1424.5,148.785C1424.59,149.723 1425.02,150.192 1425.77,150.192C1425.77,148.598 1428.25,147.473 1433.22,146.817L1436.31,148.082C1436.5,147.238 1436.92,146.817 1437.58,146.817L1438.28,146.817L1438.28,148.082L1439.55,148.082L1438.84,146.817L1441.38,146.817C1441.38,145.785 1443.25,145.082 1447,144.707C1447.09,145.645 1447.52,146.113 1448.27,146.113C1448.27,144.332 1452.44,143.207 1460.78,142.738C1460.78,142.27 1461.39,142.035 1462.61,142.035L1462.61,142.738L1463.88,142.035C1464.72,142.504 1465.38,142.738 1465.84,142.738C1465.84,140.863 1470.81,139.926 1480.75,139.926C1480.75,139.176 1486,138.051 1496.5,136.551L1496.5,138.66L1497.62,138.66C1497.62,136.41 1501,135.285 1507.75,135.285C1511.69,133.879 1514.78,133.176 1517.03,133.176L1519,133.176C1519.94,133.176 1520.78,133.41 1521.53,133.879C1521.53,132.192 1530.48,130.363 1548.39,128.395L1548.39,129.801L1550.22,129.801L1549.66,128.395L1549.66,127.832L1554.02,127.129L1554.02,127.832C1555.7,126.895 1556.97,126.426 1557.81,126.426L1557.81,127.129L1575.95,123.754L1577.22,124.317C1582.28,123.098 1591.84,121.551 1605.91,119.676L1605.91,118.973L1607.17,119.676L1609.7,119.676C1610.64,119.676 1611.48,119.442 1612.23,118.973L1613.5,119.676L1620.95,117.567ZM1593.39,139.363L1593.39,139.926L1595.92,139.926L1595.92,139.363L1593.39,139.363ZM1428.16,148.785L1428.16,149.488L1431.39,149.488L1431.39,148.785L1428.16,148.785ZM1402,220.082L1402,220.785L1402.56,220.785C1402.56,219.754 1403.17,218.395 1404.39,216.707L1404.39,216.004C1403.73,216.004 1402.94,217.363 1402,220.082ZM1432.66,328.785L1432.66,329.488L1435.05,329.488L1435.05,328.785L1432.66,328.785ZM1426.33,330.051L1426.33,330.754C1428.02,330.285 1429.47,330.051 1430.69,330.051L1430.69,329.488L1428.16,329.488C1427.41,329.863 1426.8,330.051 1426.33,330.051ZM1408.75,332.863L1408.75,333.567L1411.28,333.567L1411.28,332.863L1408.75,332.863Z" style="fill:rgb(255,0,0);fill-rule:nonzero;"/>
    <path d="M1588.19,127.27L1588.89,127.27C1588.89,128.488 1588.14,130.785 1586.64,134.16C1587.11,135.192 1587.34,135.942 1587.34,136.41L1569.77,174.801L1571.17,175.645C1577.36,162.332 1585.05,147.473 1594.23,131.067L1595.78,131.067L1595.78,131.91C1595.78,133.223 1592.45,141.895 1585.8,157.926C1586.73,157.926 1590.06,152.067 1595.78,140.348L1597.33,140.348L1597.33,141.051C1594.14,152.02 1590.58,160.223 1586.64,165.66L1587.34,167.207C1580.22,178.926 1572.3,194.02 1563.58,212.488C1564.61,212.676 1565.12,213.192 1565.12,214.035C1565.12,214.598 1564.84,214.879 1564.28,214.879L1565.12,216.285C1540.38,262.879 1516.28,312.848 1492.84,366.192C1492,366.192 1489.47,370.035 1485.25,377.723C1482.16,386.535 1480.61,391.645 1480.61,393.051C1514.17,384.801 1550.78,375.332 1590.44,364.645C1591.75,364.645 1597.89,363.098 1608.86,360.004C1609.05,361.035 1609.56,361.551 1610.41,361.551C1612.66,361.551 1634.92,356.442 1677.2,346.223C1699.61,340.598 1715.27,337.785 1724.17,337.785L1724.17,338.488L1725.58,338.488L1725.58,336.942C1726.52,337.504 1727.55,337.785 1728.67,337.785L1728.67,339.192C1728.3,339.192 1726.8,339.473 1724.17,340.035L1724.17,340.738L1724.88,340.738C1765.75,331.551 1789.05,326.957 1794.77,326.957C1795.8,327.145 1796.31,327.66 1796.31,328.504C1796.31,330.285 1784.03,333.613 1759.47,338.488C1759.47,338.957 1758.95,339.192 1757.92,339.192L1757.92,340.035L1760.17,340.035C1772.73,337.973 1780.19,336.942 1782.53,336.942L1782.53,338.488L1779.44,340.738L1779.44,341.582L1783.23,342.285C1785.2,342.285 1790.83,341.77 1800.11,340.738L1800.95,342.285C1800.95,343.973 1799.17,345.285 1795.61,346.223C1795.61,346.692 1795.33,346.926 1794.77,346.926C1764.95,350.488 1732.42,355.879 1697.17,363.098C1678.52,367.129 1668.3,369.66 1666.52,370.692L1666.52,369.988L1641.91,376.176L1641.91,375.332C1637.5,377.395 1623.44,381.238 1599.72,386.863C1599.72,386.395 1599.44,386.16 1598.88,386.16C1598.88,387.567 1592.73,389.348 1580.45,391.504C1579.14,392.535 1578.39,393.051 1578.2,393.051L1575.81,393.051L1574.27,392.207C1574.27,393.988 1555.09,399.145 1516.75,407.676C1513.38,408.145 1508.5,409.41 1502.12,411.473L1502.12,410.629C1498.66,412.223 1495.84,413.02 1493.69,413.02L1492.14,413.02C1490.08,411.988 1489.05,411.192 1489.05,410.629C1484.45,412.223 1479.34,413.254 1473.72,413.723C1473.72,413.254 1473.44,413.02 1472.88,413.02C1470.16,419.113 1467.62,422.16 1465.28,422.16C1464.25,421.692 1463.45,421.457 1462.89,421.457C1462.89,420.426 1463.41,417.848 1464.44,413.723C1463.22,414.754 1462.47,415.27 1462.19,415.27L1460.64,415.27C1460.64,414.52 1462.19,410.442 1465.28,403.035L1465.28,402.192L1464.44,402.192C1461.06,412.973 1457.5,418.363 1453.75,418.363C1450.66,417.895 1449.11,417.145 1449.11,416.113C1455.11,406.27 1463.83,386.301 1475.27,356.207L1481.31,340.035C1494.16,310.785 1518.25,258.285 1553.59,182.535C1553.59,180.66 1555.14,178.598 1558.23,176.348L1560.48,177.895C1572.2,152.113 1581.44,135.238 1588.19,127.27ZM1466.83,398.395L1468.38,398.395C1468.38,397.738 1469.36,394.926 1471.33,389.957C1470.77,389.957 1469.27,392.77 1466.83,398.395Z" style="fill:rgb(255,0,0);fill-rule:nonzero;"/>
</svg>
